{
    "games":[    
        {
            "id": "1",
            "name": "Fortnite",
            "description": "Fortnite est un jeu en ligne développé par Epic Games sous la forme de différents modes de jeu qui partagent le même gameplay général et le même moteur de jeu."
        },
        {
            "id": "2",
            "name": "Among US",
            "description": "Among Us est un jeu vidéo d'ambiance multijoueur en ligne développé et édité par le studio InnerSloth, sorti en 2018 sur Android, iOS, Chrome OS puis Windows, en 2020 sur Nintendo Switch et en 2021 sur PlayStation 4 et PlayStation 5. Le jeu se déroule dans un univers de science-fiction."
        },
        {
            "id": "3",
            "name": "Call of Duty: Warzone",
            "description": "Call of Duty: Warzone est un jeu vidéo de battle royale développé par Infinity Ward et Raven Software et édité par Activision, sorti le 10 mars 2020 sur Xbox One, PlayStation 4 et Microsoft Windows."
        },
    ]
}
